<?xml version="1.0" encoding="UTF-8" standalone="no"?>
<?xml-stylesheet href="dep.css" type="text/css"?>
<!DOCTYPE svg PUBLIC "-//W3C//DTD SVG 1.1//EN"
 "http://www.w3.org/Graphics/SVG/1.1/DTD/svg11.dtd">
<!-- Generated by graphviz version 2.40.1 (20161225.0304)
 -->
<!-- Title: type_list dependencies Pages: 1 -->
<svg width="90pt" height="188pt"
 viewBox="0.00 0.00 89.89 188.00" xmlns="http://www.w3.org/2000/svg" xmlns:xlink="http://www.w3.org/1999/xlink">
<g id="graph0" class="graph" transform="scale(1 1) rotate(0) translate(4 184)">
<title>type_list dependencies</title>
<polygon fill="#ffffff" stroke="transparent" points="-4,4 -4,-184 85.8927,-184 85.8927,4 -4,4"/>
<!-- type_list -->
<g id="node1" class="node">
<title>type_list</title>
<g id="a_node1"><a xlink:href="gut_type_list.html" xlink:title="type_list" target="gutlibdoc">
<ellipse fill="#00ff00" stroke="#000000" cx="40.9464" cy="-90" rx="40.8928" ry="18"/>
<text text-anchor="middle" x="40.9464" y="-86.3" font-family="Times,serif" font-size="14.00" fill="#000000">type_list</text>
</a>
</g>
</g>
<!-- type -->
<g id="node3" class="node">
<title>type</title>
<g id="a_node3"><a xlink:href="gut_type.html" xlink:title="type" target="gutlibdoc">
<ellipse fill="none" stroke="#000000" cx="40.9464" cy="-18" rx="27" ry="18"/>
<text text-anchor="middle" x="40.9464" y="-14.3" font-family="Times,serif" font-size="14.00" fill="#000000">type</text>
</a>
</g>
</g>
<!-- type_list&#45;&gt;type -->
<g id="edge2" class="edge">
<title>type_list&#45;&gt;type</title>
<g id="a_edge2"><a xlink:title="type begat type_list">
<path fill="none" stroke="#000000" d="M40.9464,-61.5726C40.9464,-53.1084 40.9464,-44.0593 40.9464,-36.4133"/>
<polygon fill="#000000" stroke="#000000" points="37.4465,-61.8313 40.9464,-71.8314 44.4465,-61.8314 37.4465,-61.8313"/>
</a>
</g>
</g>
<!-- ntuple -->
<g id="node2" class="node">
<title>ntuple</title>
<g id="a_node2"><a xlink:href="gut_ntuple.html" xlink:title="ntuple" target="gutlibdoc">
<ellipse fill="none" stroke="#000000" cx="40.9464" cy="-162" rx="32.4942" ry="18"/>
<text text-anchor="middle" x="40.9464" y="-158.3" font-family="Times,serif" font-size="14.00" fill="#000000">ntuple</text>
</a>
</g>
</g>
<!-- ntuple&#45;&gt;type_list -->
<g id="edge1" class="edge">
<title>ntuple&#45;&gt;type_list</title>
<g id="a_edge1"><a xlink:title="type_list begat ntuple">
<path fill="none" stroke="#000000" d="M40.9464,-133.5726C40.9464,-125.1084 40.9464,-116.0593 40.9464,-108.4133"/>
<polygon fill="#000000" stroke="#000000" points="37.4465,-133.8313 40.9464,-143.8314 44.4465,-133.8314 37.4465,-133.8313"/>
</a>
</g>
</g>
</g>
</svg>
