<?xml version="1.0" encoding="UTF-8" standalone="no"?>
<?xml-stylesheet href="dep.css" type="text/css"?>
<!DOCTYPE svg PUBLIC "-//W3C//DTD SVG 1.1//EN"
 "http://www.w3.org/Graphics/SVG/1.1/DTD/svg11.dtd">
<!-- Generated by graphviz version 2.40.1 (20161225.0304)
 -->
<!-- Title: constant dependencies Pages: 1 -->
<svg width="457pt" height="188pt"
 viewBox="0.00 0.00 456.69 188.00" xmlns="http://www.w3.org/2000/svg" xmlns:xlink="http://www.w3.org/1999/xlink">
<g id="graph0" class="graph" transform="scale(1 1) rotate(0) translate(4 184)">
<title>constant dependencies</title>
<polygon fill="#ffffff" stroke="transparent" points="-4,4 -4,-184 452.692,-184 452.692,4 -4,4"/>
<!-- constant -->
<g id="node1" class="node">
<title>constant</title>
<g id="a_node1"><a xlink:href="gut_constant.html" xlink:title="constant" target="gutlibdoc">
<ellipse fill="#00ff00" stroke="#000000" cx="210.5963" cy="-90" rx="40.0939" ry="18"/>
<text text-anchor="middle" x="210.5963" y="-86.3" font-family="Times,serif" font-size="14.00" fill="#000000">constant</text>
</a>
</g>
</g>
<!-- config -->
<g id="node3" class="node">
<title>config</title>
<g id="a_node3"><a xlink:href="gut_config.html" xlink:title="config" target="gutlibdoc">
<ellipse fill="none" stroke="#000000" cx="210.5963" cy="-18" rx="33.2948" ry="18"/>
<text text-anchor="middle" x="210.5963" y="-14.3" font-family="Times,serif" font-size="14.00" fill="#000000">config</text>
</a>
</g>
</g>
<!-- constant&#45;&gt;config -->
<g id="edge2" class="edge">
<title>constant&#45;&gt;config</title>
<g id="a_edge2"><a xlink:title="config begat constant">
<path fill="none" stroke="#000000" d="M210.5963,-61.5726C210.5963,-53.1084 210.5963,-44.0593 210.5963,-36.4133"/>
<polygon fill="#000000" stroke="#000000" points="207.0964,-61.8313 210.5963,-71.8314 214.0964,-61.8314 207.0964,-61.8313"/>
</a>
</g>
</g>
<!-- concepts -->
<g id="node2" class="node">
<title>concepts</title>
<g id="a_node2"><a xlink:href="gut_concepts.html" xlink:title="concepts" target="gutlibdoc">
<ellipse fill="none" stroke="#000000" cx="41.5963" cy="-162" rx="41.6928" ry="18"/>
<text text-anchor="middle" x="41.5963" y="-158.3" font-family="Times,serif" font-size="14.00" fill="#000000">concepts</text>
</a>
</g>
</g>
<!-- concepts&#45;&gt;constant -->
<g id="edge1" class="edge">
<title>concepts&#45;&gt;constant</title>
<g id="a_edge1"><a xlink:title="constant begat concepts">
<path fill="none" stroke="#000000" d="M80.9587,-145.2302C111.6506,-132.1544 153.5881,-114.2875 181.3524,-102.4589"/>
<polygon fill="#000000" stroke="#000000" points="79.2491,-142.1541 71.4211,-149.2936 81.9928,-148.594 79.2491,-142.1541"/>
</a>
</g>
</g>
<!-- count -->
<g id="node4" class="node">
<title>count</title>
<g id="a_node4"><a xlink:href="gut_count.html" xlink:title="count" target="gutlibdoc">
<ellipse fill="none" stroke="#000000" cx="131.5963" cy="-162" rx="30.5947" ry="18"/>
<text text-anchor="middle" x="131.5963" y="-158.3" font-family="Times,serif" font-size="14.00" fill="#000000">count</text>
</a>
</g>
</g>
<!-- count&#45;&gt;constant -->
<g id="edge3" class="edge">
<title>count&#45;&gt;constant</title>
<g id="a_edge3"><a xlink:title="constant begat count">
<path fill="none" stroke="#000000" d="M155.8114,-139.9306C167.7328,-129.0655 181.8505,-116.1987 192.7687,-106.248"/>
<polygon fill="#000000" stroke="#000000" points="153.3835,-137.4077 148.3502,-146.7307 158.0988,-142.5814 153.3835,-137.4077"/>
</a>
</g>
</g>
<!-- index -->
<g id="node5" class="node">
<title>index</title>
<g id="a_node5"><a xlink:href="gut_index.html" xlink:title="index" target="gutlibdoc">
<ellipse fill="none" stroke="#000000" cx="210.5963" cy="-162" rx="30.5947" ry="18"/>
<text text-anchor="middle" x="210.5963" y="-158.3" font-family="Times,serif" font-size="14.00" fill="#000000">index</text>
</a>
</g>
</g>
<!-- index&#45;&gt;constant -->
<g id="edge4" class="edge">
<title>index&#45;&gt;constant</title>
<g id="a_edge4"><a xlink:title="constant begat index">
<path fill="none" stroke="#000000" d="M210.5963,-133.5726C210.5963,-125.1084 210.5963,-116.0593 210.5963,-108.4133"/>
<polygon fill="#000000" stroke="#000000" points="207.0964,-133.8313 210.5963,-143.8314 214.0964,-133.8314 207.0964,-133.8313"/>
</a>
</g>
</g>
<!-- nothing -->
<g id="node6" class="node">
<title>nothing</title>
<g id="a_node6"><a xlink:href="gut_nothing.html" xlink:title="nothing" target="gutlibdoc">
<ellipse fill="none" stroke="#000000" cx="296.5963" cy="-162" rx="37.8943" ry="18"/>
<text text-anchor="middle" x="296.5963" y="-158.3" font-family="Times,serif" font-size="14.00" fill="#000000">nothing</text>
</a>
</g>
</g>
<!-- nothing&#45;&gt;constant -->
<g id="edge5" class="edge">
<title>nothing&#45;&gt;constant</title>
<g id="a_edge5"><a xlink:title="constant begat nothing">
<path fill="none" stroke="#000000" d="M269.7584,-139.5311C256.7452,-128.6362 241.4207,-115.8064 229.6291,-105.9345"/>
<polygon fill="#000000" stroke="#000000" points="267.5957,-142.2851 277.5101,-146.0209 272.0893,-136.9178 267.5957,-142.2851"/>
</a>
</g>
</g>
<!-- something -->
<g id="node7" class="node">
<title>something</title>
<g id="a_node7"><a xlink:href="gut_something.html" xlink:title="something" target="gutlibdoc">
<ellipse fill="none" stroke="#000000" cx="400.5963" cy="-162" rx="48.1917" ry="18"/>
<text text-anchor="middle" x="400.5963" y="-158.3" font-family="Times,serif" font-size="14.00" fill="#000000">something</text>
</a>
</g>
</g>
<!-- something&#45;&gt;constant -->
<g id="edge6" class="edge">
<title>something&#45;&gt;constant</title>
<g id="a_edge6"><a xlink:title="constant begat something">
<path fill="none" stroke="#000000" d="M357.0522,-145.4991C321.7321,-132.1146 272.8219,-113.5802 241.4417,-101.6888"/>
<polygon fill="#000000" stroke="#000000" points="356.0367,-148.8571 366.6281,-149.1278 358.5173,-142.3113 356.0367,-148.8571"/>
</a>
</g>
</g>
</g>
</svg>
